{
  "required": true,
  "package": "me.deftware.mixin.mixins",
  "compatibilityLevel": "JAVA_8",
  "refmap": "mixins.emc.refmap.json",
  "mixins": [
    "block.MixinAbstractBlock",
    "block.MixinBlock",
    "block.MixinBlockCactus",
    "game.MixinRegistry",
    "block.MixinBlockState",
    "block.MixinSignBlockEntity",
    "block.MixinSweetBerryBushBlock",
    "entity.MixinAbstractClientPlayer",
    "entity.MixinAbstractHorse",
    "entity.MixinAbstractPig",
    "entity.MixinEnderEyeEntity",
    "entity.MixinEntity",
    "entity.MixinEntityLivingBase",
    "entity.MixinEntityPlayerSP",
    "entity.MixinPlayerControllerMP",
    "entity.MixinPlayerEntity",
    "entity.MixinStatusEffects",
    "entity.MixinStrider",
    "entity.MixinEntityType",
    "game.MixinClientBrandRetriever",
    "game.MixinClientChunkManager",
    "game.MixinMinecraft",
    "game.MixinSoundSystem",
    "game.MixinTimer",
    "gui.MixinChatSuggestion",
    "gui.MixinCreativeInventoryScreen",
    "gui.MixinDebugHud",
    "gui.MixinGuiButton",
    "gui.MixinGuiChat",
    "gui.MixinGuiConnecting",
    "gui.MixinGuiContainer",
    "gui.MixinGuiDisconnected",
    "gui.MixinGuiEditSign",
    "gui.MixinGuiGameOver",
    "gui.MixinGuiIngame",
    "gui.MixinGuiMainMenu",
    "gui.MixinGuiNewChat",
    "gui.MixinGuiScreen",
    "gui.MixinGuiTextField",
    "gui.MixinShulkerBoxScreenHandler",
    "input.MixinKeyBinding",
    "input.MixinKeyboardListener",
    "input.MixinMouseListener",
    "input.MixinMovementInputFromOptions",
    "item.MixinEnchantments",
    "item.MixinItemStack",
    "item.MixinItemTool",
    "network.MixinCPacketPlayer",
    "network.MixinNetHandlerLoginClient",
    "network.MixinNetHandlerPlayClient",
    "network.MixinNetworkManager",
    "network.MixinNetworkPlayerInfo",
    "network.MixinServerListEntryNormal",
    "render.MixinBackgroundRenderer",
    "render.MixinBlockFluidRenderer",
    "render.MixinBlockModelRenderer",
    "render.MixinCamera",
    "render.MixinEntityRenderDispatcher",
    "render.MixinEntityRenderer",
    "render.MixinFrameBuffer",
    "render.MixinHeldItemRenderer",
    "render.MixinInGameOverlayRenderer",
    "render.MixinLayerDeadmau5Head",
    "render.MixinRender",
    "render.MixinRenderLivingBase",
    "render.MixinRenderPlayer",
    "render.MixinRenderSystem",
    "render.MixinSplashScreen",
    "render.MixinTextureManager",
    "render.MixinVisGraph",
    "render.MixinWindow",
    "render.MixinWorldRenderer",
    "render.MixinBufferBuilder",
    "render.MixinRenderLayers",
    "world.MixinWorld",
    "world.MixinWorldChunk",
    "world.MixinWorldClient"
  ]
}
